executed in 39m 3s

Epoch:    0, Iteration:    1, Train Loss:  2.9, Train Acc: 0.00% Val Acc: 0.73%
Epoch:    0, Iteration:    2, Train Loss:  2.7, Train Acc: 3.12% Val Acc: 0.71%
Epoch:    0, Iteration:    3, Train Loss:  2.3, Train Acc: 0.00% Val Acc: 0.73%
Epoch:    0, Iteration:    4, Train Loss:  2.8, Train Acc: 3.12% Val Acc: 3.27%
Epoch:    0, Iteration:    5, Train Loss:  1.3, Train Acc: 3.12% Val Acc: 28.51%
Epoch:    0, Iteration:    6, Train Loss: 0.67, Train Acc: 25.00% Val Acc: 48.05%
Epoch:    0, Iteration:    7, Train Loss: 0.53, Train Acc: 53.12% Val Acc: 51.91%
Epoch:    0, Iteration:    8, Train Loss: 0.54, Train Acc: 34.38% Val Acc: 52.48%
Epoch:    0, Iteration:    9, Train Loss: 0.61, Train Acc: 50.00% Val Acc: 52.74%
Epoch:    0, Iteration:   10, Train Loss:  1.3, Train Acc: 46.88% Val Acc: 52.76%
Epoch:    0, Iteration:   11, Train Loss: 0.79, Train Acc: 50.00% Val Acc: 47.26%
Epoch:    0, Iteration:   12, Train Loss: 0.72, Train Acc: 50.00% Val Acc: 41.11%
Epoch:    0, Iteration:   13, Train Loss: 0.46, Train Acc: 37.50% Val Acc: 37.46%
Epoch:    0, Iteration:   14, Train Loss:  1.3, Train Acc: 28.12% Val Acc: 37.74%
Epoch:    0, Iteration:   15, Train Loss: 0.62, Train Acc: 43.75% Val Acc: 37.62%
Epoch:    0, Iteration:   16, Train Loss: 0.84, Train Acc: 37.50% Val Acc: 39.81%
Epoch:    0, Iteration:   17, Train Loss: 0.82, Train Acc: 43.75% Val Acc: 44.87%
Epoch:    0, Iteration:   18, Train Loss: 0.33, Train Acc: 50.00% Val Acc: 50.79%
Epoch:    0, Iteration:   19, Train Loss: 0.92, Train Acc: 37.50% Val Acc: 54.04%
Epoch:    0, Iteration:   20, Train Loss:  1.1, Train Acc: 28.12% Val Acc: 54.85%
Epoch:    0, Iteration:   21, Train Loss: 0.79, Train Acc: 50.00% Val Acc: 53.75%
Epoch:    0, Iteration:   22, Train Loss:  1.2, Train Acc: 34.38% Val Acc: 53.06%
Epoch:    0, Iteration:   23, Train Loss:  1.4, Train Acc: 40.62% Val Acc: 51.66%
Epoch:    0, Iteration:   24, Train Loss: 0.49, Train Acc: 62.50% Val Acc: 49.86%
Epoch:    0, Iteration:   25, Train Loss:  0.7, Train Acc: 53.12% Val Acc: 49.27%
Epoch:    0, Iteration:   26, Train Loss: 0.56, Train Acc: 31.25% Val Acc: 49.59%
Epoch:    0, Iteration:   27, Train Loss: 0.63, Train Acc: 59.38% Val Acc: 50.99%
Epoch:    0, Iteration:   28, Train Loss: 0.89, Train Acc: 37.50% Val Acc: 51.87%
Epoch:    0, Iteration:   29, Train Loss: 0.86, Train Acc: 40.62% Val Acc: 52.64%
Epoch:    0, Iteration:   30, Train Loss: 0.59, Train Acc: 43.75% Val Acc: 53.81%
Epoch:    0, Iteration:   31, Train Loss: 0.63, Train Acc: 53.12% Val Acc: 54.63%
Epoch:    0, Iteration:   32, Train Loss: 0.54, Train Acc: 43.75% Val Acc: 56.13%
Epoch:    0, Iteration:   33, Train Loss: 0.82, Train Acc: 43.75% Val Acc: 56.86%
Epoch:    0, Iteration:   34, Train Loss: 0.54, Train Acc: 50.00% Val Acc: 56.62%
Epoch:    0, Iteration:   35, Train Loss: 0.39, Train Acc: 50.00% Val Acc: 52.41%
Epoch:    0, Iteration:   36, Train Loss:  1.5, Train Acc: 28.12% Val Acc: 48.88%
Epoch:    0, Iteration:   37, Train Loss:  1.0, Train Acc: 21.88% Val Acc: 43.30%
Epoch:    0, Iteration:   38, Train Loss: 0.88, Train Acc: 21.88% Val Acc: 36.83%
Epoch:    0, Iteration:   39, Train Loss: 0.87, Train Acc: 15.62% Val Acc: 32.08%
Epoch:    0, Iteration:   40, Train Loss: 0.78, Train Acc: 21.88% Val Acc: 30.17%
Epoch:    0, Iteration:   41, Train Loss:  2.4, Train Acc: 37.50% Val Acc: 31.47%
Epoch:    0, Iteration:   42, Train Loss:  2.1, Train Acc: 12.50% Val Acc: 33.00%
Epoch:    0, Iteration:   43, Train Loss:  1.7, Train Acc: 25.00% Val Acc: 39.35%
Epoch:    0, Iteration:   44, Train Loss: 0.66, Train Acc: 34.38% Val Acc: 47.69%
Epoch:    0, Iteration:   45, Train Loss: 0.49, Train Acc: 43.75% Val Acc: 53.69%
Epoch:    0, Iteration:   46, Train Loss:  0.8, Train Acc: 43.75% Val Acc: 54.99%
Epoch:    0, Iteration:   47, Train Loss: 0.52, Train Acc: 40.62% Val Acc: 54.81%
Epoch:    0, Iteration:   48, Train Loss: 0.74, Train Acc: 50.00% Val Acc: 54.50%
Epoch:    0, Iteration:   49, Train Loss:  1.3, Train Acc: 34.38% Val Acc: 54.04%
Epoch:    0, Iteration:   50, Train Loss:  1.2, Train Acc: 28.12% Val Acc: 54.59%
Epoch:    0, Iteration:   51, Train Loss:  1.4, Train Acc: 34.38% Val Acc: 54.87%
Epoch:    0, Iteration:   52, Train Loss: 0.47, Train Acc: 56.25% Val Acc: 55.34%
Epoch:    0, Iteration:   53, Train Loss: 0.58, Train Acc: 40.62% Val Acc: 56.37%
Epoch:    0, Iteration:   54, Train Loss: 0.37, Train Acc: 59.38% Val Acc: 57.28%
Epoch:    0, Iteration:   55, Train Loss: 0.52, Train Acc: 34.38% Val Acc: 57.89%
Epoch:    0, Iteration:   56, Train Loss: 0.83, Train Acc: 40.62% Val Acc: 58.14%
Epoch:    0, Iteration:   57, Train Loss: 0.88, Train Acc: 25.00% Val Acc: 57.71%
Epoch:    0, Iteration:   58, Train Loss:  1.2, Train Acc: 28.12% Val Acc: 54.69%
Epoch:    0, Iteration:   59, Train Loss: 0.66, Train Acc: 34.38% Val Acc: 51.93%
Epoch:    0, Iteration:   60, Train Loss: 0.61, Train Acc: 25.00% Val Acc: 50.00%
Epoch:    0, Iteration:   61, Train Loss: 0.19, Train Acc: 53.12% Val Acc: 48.32%
Epoch:    0, Iteration:   62, Train Loss:  0.7, Train Acc: 25.00% Val Acc: 49.15%
Epoch:    0, Iteration:   63, Train Loss: 0.93, Train Acc: 21.88% Val Acc: 50.97%
Epoch:    0, Iteration:   64, Train Loss:  2.1, Train Acc: 15.62% Val Acc: 53.69%
Epoch:    0, Iteration:   65, Train Loss: 0.84, Train Acc: 37.50% Val Acc: 54.87%
Epoch:    0, Iteration:   66, Train Loss:  1.1, Train Acc: 40.62% Val Acc: 56.37%
Epoch:    0, Iteration:   67, Train Loss: 0.46, Train Acc: 43.75% Val Acc: 57.18%
Epoch:    0, Iteration:   68, Train Loss: 0.56, Train Acc: 40.62% Val Acc: 58.81%
Epoch:    0, Iteration:   69, Train Loss: 0.52, Train Acc: 50.00% Val Acc: 58.20%
Epoch:    0, Iteration:   70, Train Loss: 0.52, Train Acc: 53.12% Val Acc: 56.84%
Epoch:    0, Iteration:   71, Train Loss:  0.9, Train Acc: 40.62% Val Acc: 57.06%
Epoch:    0, Iteration:   72, Train Loss: 0.46, Train Acc: 62.50% Val Acc: 57.69%
Epoch:    0, Iteration:   73, Train Loss:  1.9, Train Acc: 37.50% Val Acc: 61.06%
Epoch:    0, Iteration:   74, Train Loss: 0.56, Train Acc: 62.50% Val Acc: 63.23%
Epoch:    0, Iteration:   75, Train Loss: 0.36, Train Acc: 68.75% Val Acc: 62.30%
Epoch:    0, Iteration:   76, Train Loss: 0.83, Train Acc: 46.88% Val Acc: 59.17%
Epoch:    0, Iteration:   77, Train Loss: 0.51, Train Acc: 56.25% Val Acc: 56.19%
Epoch:    0, Iteration:   78, Train Loss: 0.31, Train Acc: 40.62% Val Acc: 56.01%
Epoch:    0, Iteration:   79, Train Loss:  0.4, Train Acc: 50.00% Val Acc: 56.76%
Epoch:    0, Iteration:   80, Train Loss:  1.1, Train Acc: 31.25% Val Acc: 56.49%
Epoch:    0, Iteration:   81, Train Loss:  0.8, Train Acc: 31.25% Val Acc: 56.43%
Epoch:    0, Iteration:   82, Train Loss: 0.49, Train Acc: 46.88% Val Acc: 57.47%
Epoch:    0, Iteration:   83, Train Loss: 0.67, Train Acc: 43.75% Val Acc: 59.84%
Epoch:    0, Iteration:   84, Train Loss: 0.36, Train Acc: 46.88% Val Acc: 61.77%
Epoch:    0, Iteration:   85, Train Loss: 0.49, Train Acc: 65.62% Val Acc: 63.39%
Epoch:    0, Iteration:   86, Train Loss: 0.63, Train Acc: 53.12% Val Acc: 64.45%
Epoch:    0, Iteration:   87, Train Loss:  0.3, Train Acc: 65.62% Val Acc: 62.52%
Epoch:    0, Iteration:   88, Train Loss: 0.36, Train Acc: 75.00% Val Acc: 59.68%
Epoch:    0, Iteration:   89, Train Loss:  1.4, Train Acc: 28.12% Val Acc: 61.14%
Epoch:    0, Iteration:   90, Train Loss: 0.35, Train Acc: 53.12% Val Acc: 61.91%
Epoch:    0, Iteration:   91, Train Loss: 0.74, Train Acc: 62.50% Val Acc: 60.98%
Epoch:    0, Iteration:   92, Train Loss: 0.29, Train Acc: 50.00% Val Acc: 59.96%
Epoch:    0, Iteration:   93, Train Loss: 0.51, Train Acc: 50.00% Val Acc: 60.41%
Epoch:    0, Iteration:   94, Train Loss: 0.48, Train Acc: 46.88% Val Acc: 62.13%
Epoch:    0, Iteration:   95, Train Loss: 0.28, Train Acc: 50.00% Val Acc: 64.06%
Epoch:    0, Iteration:   96, Train Loss: 0.59, Train Acc: 53.12% Val Acc: 65.75%
Epoch:    0, Iteration:   97, Train Loss: 0.68, Train Acc: 46.88% Val Acc: 63.78%
Epoch:    0, Iteration:   98, Train Loss: 0.22, Train Acc: 59.38% Val Acc: 62.24%
Epoch:    0, Iteration:   99, Train Loss: 0.43, Train Acc: 50.00% Val Acc: 59.68%
Epoch:    0, Iteration:  100, Train Loss: 0.16, Train Acc: 59.38% Val Acc: 56.66%
Epoch:    0, Iteration:  101, Train Loss: 0.65, Train Acc: 34.38% Val Acc: 57.49%

Epoch:    0, Iteration:  102, Train Loss: 0.22, Train Acc: 43.75% Val Acc: 58.12%
Epoch:    0, Iteration:  103, Train Loss:  0.5, Train Acc: 43.75% Val Acc: 60.19%
Epoch:    0, Iteration:  104, Train Loss:  1.6, Train Acc: 34.38% Val Acc: 61.63%
Epoch:    0, Iteration:  105, Train Loss: 0.77, Train Acc: 34.38% Val Acc: 57.73%
Epoch:    0, Iteration:  106, Train Loss: 0.42, Train Acc: 37.50% Val Acc: 52.56%
Epoch:    0, Iteration:  107, Train Loss: 0.35, Train Acc: 37.50% Val Acc: 50.28%
Epoch:    0, Iteration:  108, Train Loss: 0.74, Train Acc: 37.50% Val Acc: 52.46%
Epoch:    0, Iteration:  109, Train Loss: 0.52, Train Acc: 46.88% Val Acc: 54.20%
Epoch:    0, Iteration:  110, Train Loss: 0.95, Train Acc: 34.38% Val Acc: 54.67%
Epoch:    0, Iteration:  111, Train Loss:  1.6, Train Acc: 18.75% Val Acc: 55.80%
Epoch:    0, Iteration:  112, Train Loss: 0.81, Train Acc: 31.25% Val Acc: 57.63%
Epoch:    0, Iteration:  113, Train Loss: 0.58, Train Acc: 34.38% Val Acc: 61.20%
Epoch:    0, Iteration:  114, Train Loss: 0.54, Train Acc: 53.12% Val Acc: 63.92%
Epoch:    0, Iteration:  115, Train Loss:  1.1, Train Acc: 53.12% Val Acc: 67.07%
Epoch:    0, Iteration:  116, Train Loss: 0.53, Train Acc: 40.62% Val Acc: 65.93%
Epoch:    0, Iteration:  117, Train Loss:  0.6, Train Acc: 50.00% Val Acc: 63.84%
Epoch:    0, Iteration:  118, Train Loss:  1.0, Train Acc: 25.00% Val Acc: 63.94%
Epoch:    0, Iteration:  119, Train Loss: 0.36, Train Acc: 65.62% Val Acc: 63.98%
Epoch:    0, Iteration:  120, Train Loss: 0.59, Train Acc: 59.38% Val Acc: 63.96%
Epoch:    0, Iteration:  121, Train Loss: 0.31, Train Acc: 65.62% Val Acc: 64.39%
Epoch:    0, Iteration:  122, Train Loss: 0.64, Train Acc: 37.50% Val Acc: 65.20%
Epoch:    0, Iteration:  123, Train Loss: 0.38, Train Acc: 53.12% Val Acc: 66.50%
Epoch:    0, Iteration:  124, Train Loss: 0.45, Train Acc: 65.62% Val Acc: 67.23%
Epoch:    0, Iteration:  125, Train Loss: 0.74, Train Acc: 50.00% Val Acc: 68.20%
Epoch:    0, Iteration:  126, Train Loss:  0.6, Train Acc: 40.62% Val Acc: 67.74%
Epoch:    0, Iteration:  127, Train Loss: 0.53, Train Acc: 53.12% Val Acc: 66.21%
Epoch:    0, Iteration:  128, Train Loss: 0.66, Train Acc: 56.25% Val Acc: 66.15%
Epoch:    0, Iteration:  129, Train Loss: 0.36, Train Acc: 62.50% Val Acc: 67.31%
Epoch:    0, Iteration:  130, Train Loss: 0.41, Train Acc: 56.25% Val Acc: 67.35%
Epoch:    0, Iteration:  131, Train Loss: 0.42, Train Acc: 56.25% Val Acc: 67.57%
Epoch:    0, Iteration:  132, Train Loss: 0.58, Train Acc: 50.00% Val Acc: 68.06%
Epoch:    0, Iteration:  133, Train Loss:  1.0, Train Acc: 31.25% Val Acc: 66.31%
Epoch:    0, Iteration:  134, Train Loss: 0.48, Train Acc: 43.75% Val Acc: 62.89%
Epoch:    0, Iteration:  135, Train Loss: 0.38, Train Acc: 59.38% Val Acc: 59.46%
Epoch:    0, Iteration:  136, Train Loss:  1.0, Train Acc: 40.62% Val Acc: 56.53%
Epoch:    0, Iteration:  137, Train Loss:  1.6, Train Acc: 18.75% Val Acc: 59.38%
Epoch:    0, Iteration:  138, Train Loss: 0.48, Train Acc: 34.38% Val Acc: 62.13%
Epoch:    0, Iteration:  139, Train Loss: 0.35, Train Acc: 28.12% Val Acc: 63.07%
Epoch:    0, Iteration:  140, Train Loss: 0.39, Train Acc: 40.62% Val Acc: 63.35%
Epoch:    0, Iteration:  141, Train Loss: 0.41, Train Acc: 28.12% Val Acc: 63.35%
Epoch:    0, Iteration:  142, Train Loss: 0.96, Train Acc: 50.00% Val Acc: 63.23%
Epoch:    0, Iteration:  143, Train Loss:  1.1, Train Acc: 31.25% Val Acc: 63.68%
Epoch:    0, Iteration:  144, Train Loss: 0.57, Train Acc: 43.75% Val Acc: 63.43%
Epoch:    0, Iteration:  145, Train Loss: 0.57, Train Acc: 37.50% Val Acc: 63.53%
Epoch:    0, Iteration:  146, Train Loss: 0.59, Train Acc: 28.12% Val Acc: 63.94%
Epoch:    0, Iteration:  147, Train Loss: 0.47, Train Acc: 56.25% Val Acc: 64.39%
Epoch:    0, Iteration:  148, Train Loss: 0.43, Train Acc: 50.00% Val Acc: 65.10%
Epoch:    0, Iteration:  149, Train Loss: 0.36, Train Acc: 65.62% Val Acc: 66.31%
Epoch:    0, Iteration:  150, Train Loss: 0.34, Train Acc: 53.12% Val Acc: 67.96%
Epoch:    0, Iteration:  151, Train Loss:  1.6, Train Acc: 28.12% Val Acc: 69.54%
Epoch:    0, Iteration:  152, Train Loss: 0.88, Train Acc: 18.75% Val Acc: 69.78%
Epoch:    0, Iteration:  153, Train Loss: 0.52, Train Acc: 28.12% Val Acc: 69.87%
Epoch:    0, Iteration:  154, Train Loss: 0.12, Train Acc: 71.88% Val Acc: 69.89%
